{
  "project_info": {
    "project_number": "968290439700",
    "project_id": "umb-firebase",
    "storage_bucket": "umb-firebase.appspot.com"
  },
  "client": [
    {
      "client_info": {
        "mobilesdk_app_id": "1:968290439700:android:54397ff5b74fd45806cd01",
        "android_client_info": {
          "package_name": "com.example.crud_firebase"
        }
      },
      "oauth_client": [
        {
          "client_id": "968290439700-383sp2srvib4n6md5pgm954kc53dt6l2.apps.googleusercontent.com",
          "client_type": 3
        }
      ],
      "api_key": [
        {
          "current_key": "AIzaSyDZylfay6cEkm31z1Jbec4oFa-DvDwkgiE"
        }
      ],
      "services": {
        "appinvite_service": {
          "other_platform_oauth_client": [
            {
              "client_id": "968290439700-383sp2srvib4n6md5pgm954kc53dt6l2.apps.googleusercontent.com",
              "client_type": 3
            }
          ]
        }
      }
    }
  ],
  "configuration_version": "1"
}